module ingosstrah-custom-actions

go 1.19

require (
	github.com/Shopify/sarama v1.38.1
	github.com/caarlos0/env/v6 v6.10.1
	github.com/go-redis/redis/v8 v8.11.5
	github.com/go-resty/resty/v2 v2.7.0
	github.com/google/uuid v1.3.0
	github.com/gorilla/mux v1.8.0
	github.com/satori/go.uuid v1.2.0
	github.com/segmentio/kafka-go v0.4.38
	github.com/sirupsen/logrus v1.9.0
	github.com/spf13/viper v1.14.0
	github.com/streadway/amqp v1.0.0
	github.com/xdg-go/scram v1.1.2
	golang.org/x/net v0.5.0
)

require (
	github.com/cespare/xxhash/v2 v2.1.2 // indirect
	github.com/davecgh/go-spew v1.1.1 // indirect
	github.com/dgryski/go-rendezvous v0.0.0-20200823014737-9f7001d12a5f // indirect
	github.com/eapache/go-resiliency v1.3.0 // indirect
	github.com/eapache/go-xerial-snappy v0.0.0-20230111030713-bf00bc1b83b6 // indirect
	github.com/eapache/queue v1.1.0 // indirect
	github.com/fsnotify/fsnotify v1.6.0 // indirect
	github.com/golang/snappy v0.0.4 // indirect
	github.com/hashicorp/errwrap v1.0.0 // indirect
	github.com/hashicorp/go-multierror v1.1.1 // indirect
	github.com/hashicorp/go-uuid v1.0.3 // indirect
	github.com/hashicorp/hcl v1.0.0 // indirect
	github.com/jcmturner/aescts/v2 v2.0.0 // indirect
	github.com/jcmturner/dnsutils/v2 v2.0.0 // indirect
	github.com/jcmturner/gofork v1.7.6 // indirect
	github.com/jcmturner/gokrb5/v8 v8.4.3 // indirect
	github.com/jcmturner/rpc/v2 v2.0.3 // indirect
	github.com/klauspost/compress v1.15.14 // indirect
	github.com/magiconair/properties v1.8.6 // indirect
	github.com/mitchellh/mapstructure v1.5.0 // indirect
	github.com/onsi/gomega v1.24.1 // indirect
	github.com/pelletier/go-toml v1.9.5 // indirect
	github.com/pelletier/go-toml/v2 v2.0.5 // indirect
	github.com/pierrec/lz4/v4 v4.1.17 // indirect
	github.com/rcrowley/go-metrics v0.0.0-20201227073835-cf1acfcdf475 // indirect
	github.com/rogpeppe/go-internal v1.8.0 // indirect
	github.com/spf13/afero v1.9.2 // indirect
	github.com/spf13/cast v1.5.0 // indirect
	github.com/spf13/jwalterweatherman v1.1.0 // indirect
	github.com/spf13/pflag v1.0.5 // indirect
	github.com/subosito/gotenv v1.4.1 // indirect
	github.com/xdg-go/pbkdf2 v1.0.0 // indirect
	github.com/xdg-go/stringprep v1.0.4 // indirect
	github.com/xdg/scram v1.0.5 // indirect
	github.com/xdg/stringprep v1.0.3 // indirect
	golang.org/x/crypto v0.0.0-20220722155217-630584e8d5aa // indirect
	golang.org/x/sys v0.4.0 // indirect
	golang.org/x/text v0.6.0 // indirect
	gopkg.in/ini.v1 v1.67.0 // indirect
	gopkg.in/yaml.v2 v2.4.0 // indirect
	gopkg.in/yaml.v3 v3.0.1 // indirect
)
